{
    "servers": [
        {
            "id": 1,
            "name": "developmentmail1",
            "ip": "172.21.10.128"
        },
        {
            "id": 2,
            "name": "developmentmail2",
            "ip": "172.21.10.129"
        },
        {
            "id": 51,
            "name": "developmentndbmgm1",
            "ip": "172.21.10.125"
        },
        {
            "id": 52,
            "name": "developmentndbmgm2",
            "ip": "172.21.10.125"
        },
        {
            "id": 101,
            "name": "developmentauthcont1",
            "ip": "172.21.10.102"
        },
        {
            "id": 102,
            "name": "developmentauthcont2",
            "ip": "172.21.10.103"
        },
        {
            "id": 103,
            "name": "developmentauthproc1",
            "ip": "172.21.10.104"
        },
        {
            "id": 104,
            "name": "developmentauthproc2",
            "ip": "172.21.10.105"
        },
        {
            "id": 105,
            "name": "developmentauthrelay1",
            "ip": "172.21.10.106"
        },
        {
            "id": 106,
            "name": "developmentauthrelay2",
            "ip": "172.21.10.107"
        },
        {
            "id": 107,
            "name": "developmentchat1",
            "ip": "172.21.10.116"
        },
        {
            "id": 108,
            "name": "developmentchat2",
            "ip": "172.21.10.117"
        },
        {
            "id": 111,
            "name": "developmentcoin1",
            "ip": "172.21.10.150"
        },
        {
            "id": 112,
            "name": "developmentcoin2",
            "ip": "172.21.10.151"
        }
    ],
    "blacklist_id_list": "51",
    "send_sms":true,
    "phoneNumbers": "1742477015,1617634317,1710395432,1914469984,1922944639"
}